﻿  ConsoleApplicationFicheroPersonas.cpp
  ConsoleApplicationFicheroPersonas.vcxproj -> C:\Users\DAM.LAB35-PC18\Downloads\2-grado-superior\Proyectos visual studio\ConsoleApplicationFicheroPersonas\Debug\ConsoleApplicationFicheroPersonas.exe
  ConsoleApplicationFicheroPersonas.vcxproj -> C:\Users\DAM.LAB35-PC18\Downloads\2-grado-superior\Proyectos visual studio\ConsoleApplicationFicheroPersonas\Debug\ConsoleApplicationFicheroPersonas.pdb (Full PDB)
